{
    "db": {
        "url": "mongodb://127.0.0.1:27017/gotopills-apis",
        "database": "gotopills"
    },

    "app": {
        "url": "http://18.140.57.231",
        "port": 3002
    },
    "webServer": {
        "url": "http://18.140.57.231",
        "port": 3002
    },
    "logger": {
        "logStart": false,
        "console": {
            "level": "debug",
            "handleExceptions": true,
            "json": false,
            "colorize": true
        },
        "http": {}
    }
}
